{
    "path": "/agents/{agentId}/performance",
    "path_paramater_mapping": {
        "agentId": "agentId"
    },
    "method": "GET",
    "minimum_version": 8,
    "response_key": "agentPerformance.0",
    "paramaters": [{
            "name": "agentId",
            "required": true,
            "type": "numeric"
        },{
            "name": "startDate",
            "required": true,
            "type": "dateTime"
        },{
            "name": "endDate",
            "required": true,
            "type": "dateTime"
        },{
            "name": "fields",
            "type": "list"
        }]
}